%YAML 1.1
%TAG !u! tag:unity3d.com,2011:
--- !u!1 &7070695553179589925
GameObject:
  m_ObjectHideFlags: 0
  m_CorrespondingSourceObject: {fileID: 0}
  m_PrefabInstance: {fileID: 0}
  m_PrefabAsset: {fileID: 0}
  serializedVersion: 6
  m_Component:
  - component: {fileID: 5406801169672297144}
  - component: {fileID: 1331303775867918308}
  m_Layer: 0
  m_Name: FilePathStorage
  m_TagString: Untagged
  m_Icon: {fileID: 0}
  m_NavMeshLayer: 0
  m_StaticEditorFlags: 0
  m_IsActive: 1
--- !u!4 &5406801169672297144
Transform:
  m_ObjectHideFlags: 0
  m_CorrespondingSourceObject: {fileID: 0}
  m_PrefabInstance: {fileID: 0}
  m_PrefabAsset: {fileID: 0}
  m_GameObject: {fileID: 7070695553179589925}
  m_LocalRotation: {x: 0, y: 0, z: 0, w: 1}
  m_LocalPosition: {x: 0, y: 0, z: 0}
  m_LocalScale: {x: 1, y: 1, z: 1}
  m_Children: []
  m_Father: {fileID: 0}
  m_RootOrder: 0
  m_LocalEulerAnglesHint: {x: 0, y: 0, z: 0}
--- !u!114 &1331303775867918308
MonoBehaviour:
  m_ObjectHideFlags: 0
  m_CorrespondingSourceObject: {fileID: 0}
  m_PrefabInstance: {fileID: 0}
  m_PrefabAsset: {fileID: 0}
  m_GameObject: {fileID: 7070695553179589925}
  m_Enabled: 1
  m_EditorHideFlags: 0
  m_Script: {fileID: 11500000, guid: 761d511e1d74299419974f87a9464299, type: 3}
  m_Name: 
  m_EditorClassIdentifier: 
  PathRecords:
  - PeristentTypeName: UnityEngine.Battlehub.SL2.PersistentMesh
    File: {fileID: 11500000, guid: 09fdad89eda83fa4286dd944f608d707, type: 3}
  - PeristentTypeName: UnityEngine.Battlehub.SL2.PersistentMaterial
    File: {fileID: 11500000, guid: c3882a2028e8c7947a31321156152db0, type: 3}
  - PeristentTypeName: UnityEngine.Battlehub.SL2.PersistentAudioClip
    File: {fileID: 11500000, guid: 683ca596c25457a4c8f51fbc7115c291, type: 3}
  - PeristentTypeName: UnityEngine.Battlehub.SL2.PersistentParticleSystem
    File: {fileID: 11500000, guid: 644dcd861571ae341b7336de6320635f, type: 3}
  - PeristentTypeName: UnityEngine.Battlehub.SL2.PersistentTerrainData
    File: {fileID: 11500000, guid: 49adacd8b7d51ea4e9f51a1407ae59ff, type: 3}
  - PeristentTypeName: UnityEngine.Battlehub.SL2.PersistentTexture2D
    File: {fileID: 11500000, guid: 4fdee3f84c7b6c7449fd626a8f4b6390, type: 3}
  - PeristentTypeName: UnityEngine.Battlehub.SL2.PersistentParticleSystemForceField
    File: {fileID: 11500000, guid: cdc9a47e643d0e64d9fd5bf079b63728, type: 3}
  - PeristentTypeName: Battlehub.RTEditor.Battlehub.SL2.PersistentRuntimeAnimation
    File: {fileID: 11500000, guid: 20e9f6390c82f984cbe508f63aa57189, type: 3}
  - PeristentTypeName: Battlehub.RTEditor.Battlehub.SL2.PersistentRuntimeAnimationClip
    File: {fileID: 11500000, guid: 9a39821937535db4f924c32f43878cf7, type: 3}
  - PeristentTypeName: UnityEngine.Battlehub.SL2.PersistentAnimationCurve
    File: {fileID: 11500000, guid: 4244740cf8ffe2640bab86ba012b6857, type: 3}
  - PeristentTypeName: UnityEngine.Battlehub.SL2.PersistentGradient
    File: {fileID: 11500000, guid: 1d5d0881d2018dd4f9a16804b9f02d57, type: 3}
  - PeristentTypeName: UnityEngine.Battlehub.SL2.PersistentKeyframe
    File: {fileID: 11500000, guid: e471315a83007444ebe7b4b0207ef3c0, type: 3}
  - PeristentTypeName: UnityEngine.Battlehub.SL2.PersistentParticleSystem+CollisionModule
    File: {fileID: 11500000, guid: 60d6943363911a644a84c96fe8e9bddc, type: 3}
  - PeristentTypeName: UnityEngine.Battlehub.SL2.PersistentParticleSystem+CustomDataModule
    File: {fileID: 11500000, guid: dc88eeee47b1f7641a61b32df4d5d5a0, type: 3}
  - PeristentTypeName: UnityEngine.Battlehub.SL2.PersistentParticleSystem+EmissionModule
    File: {fileID: 11500000, guid: 20873d71b36978347a80ca2439e988e5, type: 3}
  - PeristentTypeName: UnityEngine.Battlehub.SL2.PersistentParticleSystem+ExternalForcesModule
    File: {fileID: 11500000, guid: 7a15525ce1d424d4aa09a5c9128eed73, type: 3}
  - PeristentTypeName: UnityEngine.Battlehub.SL2.PersistentParticleSystem+SubEmittersModule
    File: {fileID: 11500000, guid: e9056a2150dd6494e9685180a59fb14f, type: 3}
  - PeristentTypeName: UnityEngine.Battlehub.SL2.PersistentParticleSystem+TriggerModule
    File: {fileID: 11500000, guid: 1ef3f1f457872c842b5251cf9081d7e2, type: 3}
  - PeristentTypeName: UnityEngine.Battlehub.SL2.PersistentParticleSystem+TextureSheetAnimationModule
    File: {fileID: 11500000, guid: ec3c38a4f00e57949bbf1cd52e1d93cd, type: 3}
  - PeristentTypeName: Battlehub.RTEditor.Battlehub.SL2.PersistentRuntimeAnimationProperty
    File: {fileID: 11500000, guid: eca45fe4611404a42b468fc912680833, type: 3}
